   3.3000000000000000e+01	
   5.3000000000000000e+01	
   8.9000000000000000e+01	
   3.6000000000000000e+01	
   9.1000000000000000e+01	
   6.3000000000000000e+01	
   2.0000000000000000e+00	
   9.3000000000000000e+01	
   7.0000000000000000e+01	
   1.0000000000000000e+02	
