   8.5000000000000000e+01	
   1.1400000000000000e+02	
   6.0000000000000000e+00	
   1.0500000000000000e+02	
   9.7000000000000000e+01	
   5.0000000000000000e+00	
   9.9000000000000000e+01	
   6.3000000000000000e+01	
   7.8000000000000000e+01	
   6.4000000000000000e+01	
   9.3000000000000000e+01	
   5.4000000000000000e+01	
   1.3000000000000000e+01	
   9.2000000000000000e+01	
   8.3000000000000000e+01	
   9.5000000000000000e+01	
   9.9000000000000000e+01	
   8.0000000000000000e+01	
   5.5000000000000000e+01	
   5.0000000000000000e+01	
   5.1000000000000000e+01	
   7.4000000000000000e+01	
   3.6000000000000000e+01	
   1.0800000000000000e+02	
   8.4000000000000000e+01	
   5.2000000000000000e+01	
   5.6000000000000000e+01	
   6.0000000000000000e+01	
   7.0000000000000000e+00	
   3.4000000000000000e+01	
   1.1000000000000000e+01	
   5.2000000000000000e+01	
   9.9000000000000000e+01	
   1.1600000000000000e+02	
   6.5000000000000000e+01	
   4.4000000000000000e+01	
   9.6000000000000000e+01	
   1.1500000000000000e+02	
   6.0000000000000000e+01	
   2.6000000000000000e+01	
   7.0000000000000000e+01	
   1.7000000000000000e+01	
   9.6000000000000000e+01	
   8.1000000000000000e+01	
   9.4000000000000000e+01	
   8.0000000000000000e+01	
   9.0000000000000000e+00	
   4.7000000000000000e+01	
   1.1000000000000000e+01	
   1.1000000000000000e+02	
   1.1600000000000000e+02	
   1.0500000000000000e+02	
   3.5000000000000000e+01	
   3.7000000000000000e+01	
   7.6000000000000000e+01	
   1.0400000000000000e+02	
   8.5000000000000000e+01	
   3.3000000000000000e+01	
   6.1000000000000000e+01	
   9.6000000000000000e+01	
   7.3000000000000000e+01	
   4.7000000000000000e+01	
   9.0000000000000000e+01	
   1.7000000000000000e+01	
   1.2000000000000000e+02	
   1.1000000000000000e+01	
   9.6000000000000000e+01	
   2.8000000000000000e+01	
   4.6000000000000000e+01	
   1.8000000000000000e+01	
   4.5000000000000000e+01	
   4.0000000000000000e+00	
   9.5000000000000000e+01	
   4.1000000000000000e+01	
   4.2000000000000000e+01	
   7.9000000000000000e+01	
   1.1800000000000000e+02	
   6.0000000000000000e+01	
   4.9000000000000000e+01	
   1.4000000000000000e+01	
   2.6000000000000000e+01	
   3.8000000000000000e+01	
   9.4000000000000000e+01	
   9.6000000000000000e+01	
   9.4000000000000000e+01	
   8.1000000000000000e+01	
   7.0000000000000000e+00	
   7.0000000000000000e+00	
   5.0000000000000000e+01	
   6.0000000000000000e+00	
   2.4000000000000000e+01	
   2.0000000000000000e+00	
   9.8000000000000000e+01	
   4.1000000000000000e+01	
   3.2000000000000000e+01	
   3.0000000000000000e+00	
   4.0000000000000000e+00	
   1.1000000000000000e+01	
   5.7000000000000000e+01	
   1.0000000000000000e+01	
